{
    "titre"     :   "Number Crush",
    "consigne"  :   "Cliquer sur 3 cases qui se suivent,<br>alignées horizontalement ou verticalement, pour faire 5.",
    "p1"        :   "Faire ",
    "p2"        :   "avec 3 cases.",
    "opt1"      :   "Temps pour réaliser l'exercice (en secondes) : ",
    "opt2"      :   "Taille du carré : ",
    "label2"    :   ["3 x 3","4 x 4","5 x 5","6 x 6"],
    "opt3"      :   "Nombre cible :",
    "label3"    :   ["2","5","6"]
}