{
 "consigne":"Cliquer sur le nombre le plus proche du résultat de l'opération proposée",
 "titre":"Les planètes",
 "p1":"Clique sur le nombre le plus proche de :",
 "option1":"Temps pour réaliser l'exercice",
 "option2":"Type de calcul :",
 "label2":["addition 3 chiffres + 2 chiffres","addition 3 chiffres + 3 chiffres"]
}