{
    "titre"     :   "Le plus proche",
    "consigne"  :   "Utiliser les flèches haut et bas du clavier<br>pour trouver le nombre le plus proche du résultat de l'opération.",
    "consigne2"	:	"Utilise les flèches &quot;haut&quot; et &quot;bas&quot; de ton clavier pour pointer le nombre le plus proche du résultat de l'opération.",
    "opt1"      :   "Nombre de questions : ",
    "opt2"      :   "Nombre d'essais : ",
    "label2"    :   ["un","deux"],
    "opt3"      :   "Temps pour réaliser l'exercice (en secondes)  : ",
    "opt4"		:	"Type de calcul",
    "label4"	:	[	
    					"3 chiffres + 2 chiffre, pas de retenue.",
    					"3 chiffres + 2 chiffre.",
    					"3 chiffres + 3 chiffres.",
    					"4 chiffres + 3 chiffres.",
    					"4 chiffres + 4 chiffres.",
    					"mélange"
    				]
}