{
    "titre"     :   "Diviclic",
    "consigne"  :   "Calculer le quotient et le reste d'une division.",
    "p1"		:	"En %1% combien de fois %2% ?",
    "p2"		:	"<span class='conseil'>Vérifie et corrige si besoin :</span>",
    "opt1"      :   "Type de division : ",
    "label1"	:	[
    					"diviser par 2, 3",
    					"diviser par 2, 3, 4",
    					"diviser par 3, 4, 5",
    					"diviser par 4, 5, 6",
    					"diviser par 5, 6, 7",
    					"diviser par 6, 7, 8",
    					"diviser par 7, 8, 9"
    				],
    "opt2"		:	"Afficher l'aide :",
    "label2"	:	["oui","non"],
    "opt3"      :   "Temps pour réaliser l'exercice (en secondes)  : "
}