/* XPM */
static char *blobby[] = {
/* columns rows colors chars-per-pixel */
"32 32 49 1 ",
"  c #545454",
". c #575758",
"X c #5C5C5C",
"o c #5F5F60",
"O c #615F60",
"+ c #646464",
"@ c #686867",
"# c #676768",
"$ c #6C6C6C",
"% c #747474",
"& c #787777",
"* c #777877",
"= c #777778",
"- c #787778",
"; c #7C7C7C",
": c #7F807F",
"> c #80807F",
", c #838383",
"< c #888788",
"1 c #8C8C8C",
"2 c #908F8F",
"3 c #8F908F",
"4 c #949494",
"5 c #979798",
"6 c #979898",
"7 c #9B9B9B",
"8 c #A3A3A3",
"9 c #ACACAC",
"0 c #B0AFB0",
"q c #B3B3B3",
"w c #B8B7B7",
"e c #BBBBBB",
"r c #BFC0BF",
"t c #C3C3C3",
"y c #C8C7C8",
"u c #CACACA",
"i c #CFCFD0",
"p c #D3D3D3",
"a c #D7D7D8",
"s c #DCDBDB",
"d c #DFE0DF",
"f c #E0E0DF",
"g c #E4E4E3",
"h c #E7E8E7",
"j c #EBEBEB",
"k c #F4F4F4",
"l c #F7F8F8",
"z c #FCFCFC",
"x c None",
/* pixels */
"xxxxxxxxxxxxhlzlkkklxxxxxxxxxxxx",
"xxxxxxxxxxkzkjkllzzzzlxxxxxxxxxx",
"xxxxxxxhzzzzkjzzzzzlkkkjgxxxxxxx",
"xxxxxxkkzzzzlklzzzlkkjggayxxxxxx",
"xxxxxzzklzzzzkkklkkhgssssiuxxxxx",
"xxxxzzzlkzzzljghjjhgssgsspyyxxxx",
"xxxjlzzkjkkkkhsshhhggsssaiteexxx",
"xxxhlklkhhjjjhgsghhgsaipputw0xxx",
"xxjhjkkhghhjhjgssdsssiuuyte098xx",
"xxhgghgghhhhhggapasaputetee987xx",
"xggsasggggggssspyupiuyrw0w09743x",
"xsaaasssfsssaaiuetyytrw09988411x",
"uuiaassasapiiuteqwerew0988873>;>",
"0uippppiuuyteeeeq0qww99854431;%;",
"wyuuuuuteeeeeewew9899887311<,%@$",
"0ettteewwwwwww00087887731;>;%$+#",
"90eeq0900wwq009998446431,=**$@+X",
"989990wwww00099987114431,=%%$@o ",
"88800wwqq0009988741,111<,=$$@+X ",
"88900000009988754431,1<,;%#oX.XX",
"x8899999998776456543:,,;;@X Xo+x",
"x7889998777666764431:*;=$+X.o+#x",
"xx77877767777765431<;$@@#++++#xx",
"xx4114677877754331<,;#o#+++++#xx",
"xxx1177777644421<,;%%@X+++#++xxx",
"xxx11344444211<>=;%%%@XX+#++oxxx",
"xxxx,<13111<,;;=$$%%$@oXXXXXxxxx",
"xxxxx;,<,;=%;;;=%@$$@##X .Xxxxxx",
"xxxxxx$%%;%$%;%%$+o##+#X.Xxxxxxx",
"xxxxxxx%%%$$$%$$@+.O++++Xxxxxxxx",
"xxxxxxxxxx@+O####+XX#+xxxxxxxxxx",
"xxxxxxxxxxxx.#$##@+Xxxxxxxxxxxxx"
};
