{
    "titre"     :   "Le viaduc",
    "consigne"  :   "Il faut finir la construction du pont.<br>Cliquer sur les poutrelles pour les poser ou les retirer.",
    "cons1"      :  "Le pont mesure ",
    "opt1"      :   "Nombre de questions : ",
    "opt2"      :   "Nombre d'essais : ",
    "label2"    :   ["un","deux"],
    "opt3"      :   "Temps pour réaliser l'exercice (en secondes)  : ",
    "opt4"      :   "Type de calcul : ",
    "label4"    :   ["Décomposition de 20,30,40,50","Décomposition de 100,200,300,400","Décomposition de 500,600,700,800,900,1 000","Décomposition d'un entier en dixièmes","Décomposition d'un entier en centièmes"]
}