services.addons.mozilla.org:HSTS	2	17821	1571304712936,1,0,2
versioncheck-bg.addons.mozilla.org:HSTS	0	17821	1539769015062,1,0,2
shavar.services.mozilla.com:HSTS	0	17678	1558980382435,1,1
services.addons.mozilla.org:HPKP	2	17821	1544952712939,1,1,WoiWRyIOVNa9ihaBciRSC7XHjliYS9VwUGOIud4PB18=r/mIkG3eEpVdm+u/ko/cwxzOMo1bk4TyHIlByibiA5E=
shavar.services.mozilla.com^firstPartyDomain=safebrowsing.86868755-6b82-4842-b301-72671a0db32e.mozilla:HSTS	0	17821	1571304284400,1,1,2
versioncheck-bg.addons.mozilla.org:HPKP	0	17821	1544952715065,1,1,WoiWRyIOVNa9ihaBciRSC7XHjliYS9VwUGOIud4PB18=r/mIkG3eEpVdm+u/ko/cwxzOMo1bk4TyHIlByibiA5E=
aus5.mozilla.org:HSTS	0	17821	1571304667005,1,0,2
versioncheck.addons.mozilla.org:HSTS	0	17821	1539768580182,1,0,2
versioncheck.addons.mozilla.org:HPKP	0	17821	1544952280183,1,1,WoiWRyIOVNa9ihaBciRSC7XHjliYS9VwUGOIud4PB18=r/mIkG3eEpVdm+u/ko/cwxzOMo1bk4TyHIlByibiA5E=
